Mini Project 4
…
This plot shows the average sentiment of critics and users for each Saw movie. The most interesting piece of this to me is how different the average sentiments are between critics and users for Saw 6. Also, it seems that the critics and users received Saw 3D oppositely as well.

I will see what words are commonly used in the reviews.

smart_stopwords <- get_stopwords(source = "smart")

tidy_reviews_count <- tidy_reviews |>
  anti_join(smart_stopwords) |>
  count(word, movie, sort = TRUE)

Joining with `by = join_by(word)`

tidy_reviews_count

# A tibble: 2,724 × 3
   word   movie      n
   <chr>  <chr>  <int>
 1 horror saw       19
 2 movie  saw3d     16
 3 movie  saw       14
 4 movie  saw_vi    14
 5 ii     saw_ii    13
 6 movie  saw_v     13
 7 3d     saw3d     12
 8 film   saw       11
 9 film   saw3d     11
10 movie  saw_3     11
# ℹ 2,714 more rows
…
This plot shows the sentiment of user reviews for each movie individually.

Just for fun, I wanted to look at the bigrams for all of the reviews.

tidy_reviews_ngram <- all_reviews |>
  unnest_tokens(bigram, review, token = "ngrams", n = 2) |>
  filter(bigram != "NA")

tidy_reviews_ngram

# A tibble: 8,122 × 3
   type   movie bigram          
   <chr>  <chr> <chr>           
 1 critic saw   the sound       
 2 critic saw   sound of        
 3 critic saw   of jigsaw's     
 4 critic saw   jigsaw's gravely
 5 critic saw   gravely voice   
 6 critic saw   voice pouring   
 7 critic saw   pouring out     
 8 critic saw   out of          
 9 critic saw   of the          
10 critic saw   the tape        
# ℹ 8,112 more rows
…
